{
	"tracks": [
	  {
		"album": {
		  "album_type": "album",
		  "artists": [
			{
			  "external_urls": {
				"spotify": "https://open.spotify.com/artist/28hJdGN1Awf7u3ifk2lVkg"
			  },
			  "href": "https://api.spotify.com/v1/artists/28hJdGN1Awf7u3ifk2lVkg",
			  "id": "28hJdGN1Awf7u3ifk2lVkg",
			  "name": "Testament",
			  "type": "artist",
			  "uri": "spotify:artist:28hJdGN1Awf7u3ifk2lVkg"
			}
		  ],
		  "external_urls": {
			"spotify": "https://open.spotify.com/album/6YXf0vbjFhURCPUewYhVWE"
		  },
		  "href": "https://api.spotify.com/v1/albums/6YXf0vbjFhURCPUewYhVWE",
		  "id": "6YXf0vbjFhURCPUewYhVWE",
		  "images": [
			{
			  "height": 640,
			  "url": "https://i.scdn.co/image/ab67616d0000b27366cc5ccc3c9a8c45a8831682",
			  "width": 640
			},
			{
			  "height": 300,
			  "url": "https://i.scdn.co/image/ab67616d00001e0266cc5ccc3c9a8c45a8831682",
			  "width": 300
			},
			{
			  "height": 64,
			  "url": "https://i.scdn.co/image/ab67616d0000485166cc5ccc3c9a8c45a8831682",
			  "width": 64
			}
		  ],
		  "name": "The Ritual",
		  "release_date": "1992-04-28",
		  "release_date_precision": "day",
		  "total_tracks": 11,
		  "type": "album",
		  "uri": "spotify:album:6YXf0vbjFhURCPUewYhVWE"
		},
		"artists": [
		  {
			"external_urls": {
			  "spotify": "https://open.spotify.com/artist/28hJdGN1Awf7u3ifk2lVkg"
			},
			"href": "https://api.spotify.com/v1/artists/28hJdGN1Awf7u3ifk2lVkg",
			"id": "28hJdGN1Awf7u3ifk2lVkg",
			"name": "Testament",
			"type": "artist",
			"uri": "spotify:artist:28hJdGN1Awf7u3ifk2lVkg"
		  }
		],
		"disc_number": 1,
		"duration_ms": 390800,
		"explicit": false,
		"external_ids": {
		  "isrc": "USAT20003038"
		},
		"external_urls": {
		  "spotify": "https://open.spotify.com/track/5awljpWNO5TpXCyjpvCBbs"
		},
		"href": "https://api.spotify.com/v1/tracks/5awljpWNO5TpXCyjpvCBbs",
		"id": "5awljpWNO5TpXCyjpvCBbs",
		"is_local": false,
		"is_playable": true,
		"name": "Return to Serenity",
		"popularity": 52,
		"preview_url": "https://p.scdn.co/mp3-preview/281c626d443a575bbb70bd9c386848c4899933ae?cid=c4e0f49f6d684f599d748b321f61ddf7",
		"track_number": 10,
		"type": "track",
		"uri": "spotify:track:5awljpWNO5TpXCyjpvCBbs"
	  },
	  {
		"album": {
		  "album_type": "album",
		  "artists": [
			{
			  "external_urls": {
				"spotify": "https://open.spotify.com/artist/28hJdGN1Awf7u3ifk2lVkg"
			  },
			  "href": "https://api.spotify.com/v1/artists/28hJdGN1Awf7u3ifk2lVkg",
			  "id": "28hJdGN1Awf7u3ifk2lVkg",
			  "name": "Testament",
			  "type": "artist",
			  "uri": "spotify:artist:28hJdGN1Awf7u3ifk2lVkg"
			}
		  ],
		  "external_urls": {
			"spotify": "https://open.spotify.com/album/6HELG1uNTkBj4OwJcC9fY9"
		  },
		  "href": "https://api.spotify.com/v1/albums/6HELG1uNTkBj4OwJcC9fY9",
		  "id": "6HELG1uNTkBj4OwJcC9fY9",
		  "images": [
			{
			  "height": 640,
			  "url": "https://i.scdn.co/image/ab67616d0000b273e9bb3d1035071708db60c2d4",
			  "width": 640
			},
			{
			  "height": 300,
			  "url": "https://i.scdn.co/image/ab67616d00001e02e9bb3d1035071708db60c2d4",
			  "width": 300
			},
			{
			  "height": 64,
			  "url": "https://i.scdn.co/image/ab67616d00004851e9bb3d1035071708db60c2d4",
			  "width": 64
			}
		  ],
		  "name": "The Legacy",
		  "release_date": "1987-04-21",
		  "release_date_precision": "day",
		  "total_tracks": 9,
		  "type": "album",
		  "uri": "spotify:album:6HELG1uNTkBj4OwJcC9fY9"
		},
		"artists": [
		  {
			"external_urls": {
			  "spotify": "https://open.spotify.com/artist/28hJdGN1Awf7u3ifk2lVkg"
			},
			"href": "https://api.spotify.com/v1/artists/28hJdGN1Awf7u3ifk2lVkg",
			"id": "28hJdGN1Awf7u3ifk2lVkg",
			"name": "Testament",
			"type": "artist",
			"uri": "spotify:artist:28hJdGN1Awf7u3ifk2lVkg"
		  }
		],
		"disc_number": 1,
		"duration_ms": 246066,
		"explicit": false,
		"external_ids": {
		  "isrc": "USAT29900641"
		},
		"external_urls": {
		  "spotify": "https://open.spotify.com/track/5xXeIlEiWIA8xnPa8BkJyj"
		},
		"href": "https://api.spotify.com/v1/tracks/5xXeIlEiWIA8xnPa8BkJyj",
		"id": "5xXeIlEiWIA8xnPa8BkJyj",
		"is_local": false,
		"is_playable": true,
		"name": "Over the Wall",
		"popularity": 52,
		"preview_url": "https://p.scdn.co/mp3-preview/e4407285ac480dccadfda89c5c01203e54b07db7?cid=c4e0f49f6d684f599d748b321f61ddf7",
		"track_number": 1,
		"type": "track",
		"uri": "spotify:track:5xXeIlEiWIA8xnPa8BkJyj"
	  },
	  {
		"album": {
		  "album_type": "album",
		  "artists": [
			{
			  "external_urls": {
				"spotify": "https://open.spotify.com/artist/28hJdGN1Awf7u3ifk2lVkg"
			  },
			  "href": "https://api.spotify.com/v1/artists/28hJdGN1Awf7u3ifk2lVkg",
			  "id": "28hJdGN1Awf7u3ifk2lVkg",
			  "name": "Testament",
			  "type": "artist",
			  "uri": "spotify:artist:28hJdGN1Awf7u3ifk2lVkg"
			}
		  ],
		  "external_urls": {
			"spotify": "https://open.spotify.com/album/63dZKnLfVsHItoygbM7IJK"
		  },
		  "href": "https://api.spotify.com/v1/albums/63dZKnLfVsHItoygbM7IJK",
		  "id": "63dZKnLfVsHItoygbM7IJK",
		  "images": [
			{
			  "height": 640,
			  "url": "https://i.scdn.co/image/ab67616d0000b273683bc85e4435f02fb7fade6d",
			  "width": 640
			},
			{
			  "height": 300,
			  "url": "https://i.scdn.co/image/ab67616d00001e02683bc85e4435f02fb7fade6d",
			  "width": 300
			},
			{
			  "height": 64,
			  "url": "https://i.scdn.co/image/ab67616d00004851683bc85e4435f02fb7fade6d",
			  "width": 64
			}
		  ],
		  "name": "Titans of Creation",
		  "release_date": "2020-04-03",
		  "release_date_precision": "day",
		  "total_tracks": 12,
		  "type": "album",
		  "uri": "spotify:album:63dZKnLfVsHItoygbM7IJK"
		},
		"artists": [
		  {
			"external_urls": {
			  "spotify": "https://open.spotify.com/artist/28hJdGN1Awf7u3ifk2lVkg"
			},
			"href": "https://api.spotify.com/v1/artists/28hJdGN1Awf7u3ifk2lVkg",
			"id": "28hJdGN1Awf7u3ifk2lVkg",
			"name": "Testament",
			"type": "artist",
			"uri": "spotify:artist:28hJdGN1Awf7u3ifk2lVkg"
		  }
		],
		"disc_number": 1,
		"duration_ms": 392066,
		"explicit": false,
		"external_ids": {
		  "isrc": "DED831901122"
		},
		"external_urls": {
		  "spotify": "https://open.spotify.com/track/3orHIz1YV1bmUHsi2fze48"
		},
		"href": "https://api.spotify.com/v1/tracks/3orHIz1YV1bmUHsi2fze48",
		"id": "3orHIz1YV1bmUHsi2fze48",
		"is_local": false,
		"is_playable": true,
		"name": "Night of the Witch",
		"popularity": 51,
		"preview_url": "https://p.scdn.co/mp3-preview/06918a1b82cd7caec5f4db2477c399018ef33b0e?cid=c4e0f49f6d684f599d748b321f61ddf7",
		"track_number": 4,
		"type": "track",
		"uri": "spotify:track:3orHIz1YV1bmUHsi2fze48"
	  },
	  {
		"album": {
		  "album_type": "album",
		  "artists": [
			{
			  "external_urls": {
				"spotify": "https://open.spotify.com/artist/28hJdGN1Awf7u3ifk2lVkg"
			  },
			  "href": "https://api.spotify.com/v1/artists/28hJdGN1Awf7u3ifk2lVkg",
			  "id": "28hJdGN1Awf7u3ifk2lVkg",
			  "name": "Testament",
			  "type": "artist",
			  "uri": "spotify:artist:28hJdGN1Awf7u3ifk2lVkg"
			}
		  ],
		  "external_urls": {
			"spotify": "https://open.spotify.com/album/63dZKnLfVsHItoygbM7IJK"
		  },
		  "href": "https://api.spotify.com/v1/albums/63dZKnLfVsHItoygbM7IJK",
		  "id": "63dZKnLfVsHItoygbM7IJK",
		  "images": [
			{
			  "height": 640,
			  "url": "https://i.scdn.co/image/ab67616d0000b273683bc85e4435f02fb7fade6d",
			  "width": 640
			},
			{
			  "height": 300,
			  "url": "https://i.scdn.co/image/ab67616d00001e02683bc85e4435f02fb7fade6d",
			  "width": 300
			},
			{
			  "height": 64,
			  "url": "https://i.scdn.co/image/ab67616d00004851683bc85e4435f02fb7fade6d",
			  "width": 64
			}
		  ],
		  "name": "Titans of Creation",
		  "release_date": "2020-04-03",
		  "release_date_precision": "day",
		  "total_tracks": 12,
		  "type": "album",
		  "uri": "spotify:album:63dZKnLfVsHItoygbM7IJK"
		},
		"artists": [
		  {
			"external_urls": {
			  "spotify": "https://open.spotify.com/artist/28hJdGN1Awf7u3ifk2lVkg"
			},
			"href": "https://api.spotify.com/v1/artists/28hJdGN1Awf7u3ifk2lVkg",
			"id": "28hJdGN1Awf7u3ifk2lVkg",
			"name": "Testament",
			"type": "artist",
			"uri": "spotify:artist:28hJdGN1Awf7u3ifk2lVkg"
		  }
		],
		"disc_number": 1,
		"duration_ms": 373934,
		"explicit": false,
		"external_ids": {
		  "isrc": "DED831901119"
		},
		"external_urls": {
		  "spotify": "https://open.spotify.com/track/5qC1Ly7Ec3fVxVbdpsLh7H"
		},
		"href": "https://api.spotify.com/v1/tracks/5qC1Ly7Ec3fVxVbdpsLh7H",
		"id": "5qC1Ly7Ec3fVxVbdpsLh7H",
		"is_local": false,
		"is_playable": true,
		"name": "Children of the Next Level",
		"popularity": 51,
		"preview_url": "https://p.scdn.co/mp3-preview/5d64f301b2da5dd5e39c605aaffd2dbb6ffc551f?cid=c4e0f49f6d684f599d748b321f61ddf7",
		"track_number": 1,
		"type": "track",
		"uri": "spotify:track:5qC1Ly7Ec3fVxVbdpsLh7H"
	  },
	  {
		"album": {
		  "album_type": "album",
		  "artists": [
			{
			  "external_urls": {
				"spotify": "https://open.spotify.com/artist/28hJdGN1Awf7u3ifk2lVkg"
			  },
			  "href": "https://api.spotify.com/v1/artists/28hJdGN1Awf7u3ifk2lVkg",
			  "id": "28hJdGN1Awf7u3ifk2lVkg",
			  "name": "Testament",
			  "type": "artist",
			  "uri": "spotify:artist:28hJdGN1Awf7u3ifk2lVkg"
			}
		  ],
		  "external_urls": {
			"spotify": "https://open.spotify.com/album/6YXf0vbjFhURCPUewYhVWE"
		  },
		  "href": "https://api.spotify.com/v1/albums/6YXf0vbjFhURCPUewYhVWE",
		  "id": "6YXf0vbjFhURCPUewYhVWE",
		  "images": [
			{
			  "height": 640,
			  "url": "https://i.scdn.co/image/ab67616d0000b27366cc5ccc3c9a8c45a8831682",
			  "width": 640
			},
			{
			  "height": 300,
			  "url": "https://i.scdn.co/image/ab67616d00001e0266cc5ccc3c9a8c45a8831682",
			  "width": 300
			},
			{
			  "height": 64,
			  "url": "https://i.scdn.co/image/ab67616d0000485166cc5ccc3c9a8c45a8831682",
			  "width": 64
			}
		  ],
		  "name": "The Ritual",
		  "release_date": "1992-04-28",
		  "release_date_precision": "day",
		  "total_tracks": 11,
		  "type": "album",
		  "uri": "spotify:album:6YXf0vbjFhURCPUewYhVWE"
		},
		"artists": [
		  {
			"external_urls": {
			  "spotify": "https://open.spotify.com/artist/28hJdGN1Awf7u3ifk2lVkg"
			},
			"href": "https://api.spotify.com/v1/artists/28hJdGN1Awf7u3ifk2lVkg",
			"id": "28hJdGN1Awf7u3ifk2lVkg",
			"name": "Testament",
			"type": "artist",
			"uri": "spotify:artist:28hJdGN1Awf7u3ifk2lVkg"
		  }
		],
		"disc_number": 1,
		"duration_ms": 330226,
		"explicit": false,
		"external_ids": {
		  "isrc": "USAT20003030"
		},
		"external_urls": {
		  "spotify": "https://open.spotify.com/track/5gnjaZqOaqE5GZKjby8KoT"
		},
		"href": "https://api.spotify.com/v1/tracks/5gnjaZqOaqE5GZKjby8KoT",
		"id": "5gnjaZqOaqE5GZKjby8KoT",
		"is_local": false,
		"is_playable": true,
		"name": "Electric Crown",
		"popularity": 51,
		"preview_url": "https://p.scdn.co/mp3-preview/6962417f84cf9324685b8d688893fc82fcfd43db?cid=c4e0f49f6d684f599d748b321f61ddf7",
		"track_number": 2,
		"type": "track",
		"uri": "spotify:track:5gnjaZqOaqE5GZKjby8KoT"
	  },
	  {
		"album": {
		  "album_type": "album",
		  "artists": [
			{
			  "external_urls": {
				"spotify": "https://open.spotify.com/artist/28hJdGN1Awf7u3ifk2lVkg"
			  },
			  "href": "https://api.spotify.com/v1/artists/28hJdGN1Awf7u3ifk2lVkg",
			  "id": "28hJdGN1Awf7u3ifk2lVkg",
			  "name": "Testament",
			  "type": "artist",
			  "uri": "spotify:artist:28hJdGN1Awf7u3ifk2lVkg"
			}
		  ],
		  "external_urls": {
			"spotify": "https://open.spotify.com/album/63dZKnLfVsHItoygbM7IJK"
		  },
		  "href": "https://api.spotify.com/v1/albums/63dZKnLfVsHItoygbM7IJK",
		  "id": "63dZKnLfVsHItoygbM7IJK",
		  "images": [
			{
			  "height": 640,
			  "url": "https://i.scdn.co/image/ab67616d0000b273683bc85e4435f02fb7fade6d",
			  "width": 640
			},
			{
			  "height": 300,
			  "url": "https://i.scdn.co/image/ab67616d00001e02683bc85e4435f02fb7fade6d",
			  "width": 300
			},
			{
			  "height": 64,
			  "url": "https://i.scdn.co/image/ab67616d00004851683bc85e4435f02fb7fade6d",
			  "width": 64
			}
		  ],
		  "name": "Titans of Creation",
		  "release_date": "2020-04-03",
		  "release_date_precision": "day",
		  "total_tracks": 12,
		  "type": "album",
		  "uri": "spotify:album:63dZKnLfVsHItoygbM7IJK"
		},
		"artists": [
		  {
			"external_urls": {
			  "spotify": "https://open.spotify.com/artist/28hJdGN1Awf7u3ifk2lVkg"
			},
			"href": "https://api.spotify.com/v1/artists/28hJdGN1Awf7u3ifk2lVkg",
			"id": "28hJdGN1Awf7u3ifk2lVkg",
			"name": "Testament",
			"type": "artist",
			"uri": "spotify:artist:28hJdGN1Awf7u3ifk2lVkg"
		  }
		],
		"disc_number": 1,
		"duration_ms": 403266,
		"explicit": true,
		"external_ids": {
		  "isrc": "DED831901123"
		},
		"external_urls": {
		  "spotify": "https://open.spotify.com/track/0G4o9ktKTaY5q4iz2jA6Ct"
		},
		"href": "https://api.spotify.com/v1/tracks/0G4o9ktKTaY5q4iz2jA6Ct",
		"id": "0G4o9ktKTaY5q4iz2jA6Ct",
		"is_local": false,
		"is_playable": true,
		"name": "City of Angels",
		"popularity": 51,
		"preview_url": "https://p.scdn.co/mp3-preview/4f5e1315072bef21b64aec0cc6f984792ea311a4?cid=c4e0f49f6d684f599d748b321f61ddf7",
		"track_number": 5,
		"type": "track",
		"uri": "spotify:track:0G4o9ktKTaY5q4iz2jA6Ct"
	  },
	  {
		"album": {
		  "album_type": "album",
		  "artists": [
			{
			  "external_urls": {
				"spotify": "https://open.spotify.com/artist/28hJdGN1Awf7u3ifk2lVkg"
			  },
			  "href": "https://api.spotify.com/v1/artists/28hJdGN1Awf7u3ifk2lVkg",
			  "id": "28hJdGN1Awf7u3ifk2lVkg",
			  "name": "Testament",
			  "type": "artist",
			  "uri": "spotify:artist:28hJdGN1Awf7u3ifk2lVkg"
			}
		  ],
		  "external_urls": {
			"spotify": "https://open.spotify.com/album/63dZKnLfVsHItoygbM7IJK"
		  },
		  "href": "https://api.spotify.com/v1/albums/63dZKnLfVsHItoygbM7IJK",
		  "id": "63dZKnLfVsHItoygbM7IJK",
		  "images": [
			{
			  "height": 640,
			  "url": "https://i.scdn.co/image/ab67616d0000b273683bc85e4435f02fb7fade6d",
			  "width": 640
			},
			{
			  "height": 300,
			  "url": "https://i.scdn.co/image/ab67616d00001e02683bc85e4435f02fb7fade6d",
			  "width": 300
			},
			{
			  "height": 64,
			  "url": "https://i.scdn.co/image/ab67616d00004851683bc85e4435f02fb7fade6d",
			  "width": 64
			}
		  ],
		  "name": "Titans of Creation",
		  "release_date": "2020-04-03",
		  "release_date_precision": "day",
		  "total_tracks": 12,
		  "type": "album",
		  "uri": "spotify:album:63dZKnLfVsHItoygbM7IJK"
		},
		"artists": [
		  {
			"external_urls": {
			  "spotify": "https://open.spotify.com/artist/28hJdGN1Awf7u3ifk2lVkg"
			},
			"href": "https://api.spotify.com/v1/artists/28hJdGN1Awf7u3ifk2lVkg",
			"id": "28hJdGN1Awf7u3ifk2lVkg",
			"name": "Testament",
			"type": "artist",
			"uri": "spotify:artist:28hJdGN1Awf7u3ifk2lVkg"
		  }
		],
		"disc_number": 1,
		"duration_ms": 288293,
		"explicit": true,
		"external_ids": {
		  "isrc": "DED831901120"
		},
		"external_urls": {
		  "spotify": "https://open.spotify.com/track/0XnV89hrJWQxPkddqWtIln"
		},
		"href": "https://api.spotify.com/v1/tracks/0XnV89hrJWQxPkddqWtIln",
		"id": "0XnV89hrJWQxPkddqWtIln",
		"is_local": false,
		"is_playable": true,
		"name": "WWIII",
		"popularity": 51,
		"preview_url": "https://p.scdn.co/mp3-preview/00ee206907bd099da59b74c15b3542277e580584?cid=c4e0f49f6d684f599d748b321f61ddf7",
		"track_number": 2,
		"type": "track",
		"uri": "spotify:track:0XnV89hrJWQxPkddqWtIln"
	  },
	  {
		"album": {
		  "album_type": "album",
		  "artists": [
			{
			  "external_urls": {
				"spotify": "https://open.spotify.com/artist/28hJdGN1Awf7u3ifk2lVkg"
			  },
			  "href": "https://api.spotify.com/v1/artists/28hJdGN1Awf7u3ifk2lVkg",
			  "id": "28hJdGN1Awf7u3ifk2lVkg",
			  "name": "Testament",
			  "type": "artist",
			  "uri": "spotify:artist:28hJdGN1Awf7u3ifk2lVkg"
			}
		  ],
		  "external_urls": {
			"spotify": "https://open.spotify.com/album/70oAOzrUemHFWB8VKToEtu"
		  },
		  "href": "https://api.spotify.com/v1/albums/70oAOzrUemHFWB8VKToEtu",
		  "id": "70oAOzrUemHFWB8VKToEtu",
		  "images": [
			{
			  "height": 640,
			  "url": "https://i.scdn.co/image/ab67616d0000b2730b6ebf3fda7d3762cca7ed91",
			  "width": 640
			},
			{
			  "height": 300,
			  "url": "https://i.scdn.co/image/ab67616d00001e020b6ebf3fda7d3762cca7ed91",
			  "width": 300
			},
			{
			  "height": 64,
			  "url": "https://i.scdn.co/image/ab67616d000048510b6ebf3fda7d3762cca7ed91",
			  "width": 64
			}
		  ],
		  "name": "Brotherhood of the Snake",
		  "release_date": "2016-10-28",
		  "release_date_precision": "day",
		  "total_tracks": 10,
		  "type": "album",
		  "uri": "spotify:album:70oAOzrUemHFWB8VKToEtu"
		},
		"artists": [
		  {
			"external_urls": {
			  "spotify": "https://open.spotify.com/artist/28hJdGN1Awf7u3ifk2lVkg"
			},
			"href": "https://api.spotify.com/v1/artists/28hJdGN1Awf7u3ifk2lVkg",
			"id": "28hJdGN1Awf7u3ifk2lVkg",
			"name": "Testament",
			"type": "artist",
			"uri": "spotify:artist:28hJdGN1Awf7u3ifk2lVkg"
		  }
		],
		"disc_number": 1,
		"duration_ms": 253988,
		"explicit": false,
		"external_ids": {
		  "isrc": "DED831601024"
		},
		"external_urls": {
		  "spotify": "https://open.spotify.com/track/4VcN84ZdC7doe4yoIarJUA"
		},
		"href": "https://api.spotify.com/v1/tracks/4VcN84ZdC7doe4yoIarJUA",
		"id": "4VcN84ZdC7doe4yoIarJUA",
		"is_local": false,
		"is_playable": true,
		"name": "Brotherhood of the Snake",
		"popularity": 50,
		"preview_url": "https://p.scdn.co/mp3-preview/b52261b130322841ff533a9f06a3427a4f25573a?cid=c4e0f49f6d684f599d748b321f61ddf7",
		"track_number": 1,
		"type": "track",
		"uri": "spotify:track:4VcN84ZdC7doe4yoIarJUA"
	  },
	  {
		"album": {
		  "album_type": "album",
		  "artists": [
			{
			  "external_urls": {
				"spotify": "https://open.spotify.com/artist/28hJdGN1Awf7u3ifk2lVkg"
			  },
			  "href": "https://api.spotify.com/v1/artists/28hJdGN1Awf7u3ifk2lVkg",
			  "id": "28hJdGN1Awf7u3ifk2lVkg",
			  "name": "Testament",
			  "type": "artist",
			  "uri": "spotify:artist:28hJdGN1Awf7u3ifk2lVkg"
			}
		  ],
		  "external_urls": {
			"spotify": "https://open.spotify.com/album/63dZKnLfVsHItoygbM7IJK"
		  },
		  "href": "https://api.spotify.com/v1/albums/63dZKnLfVsHItoygbM7IJK",
		  "id": "63dZKnLfVsHItoygbM7IJK",
		  "images": [
			{
			  "height": 640,
			  "url": "https://i.scdn.co/image/ab67616d0000b273683bc85e4435f02fb7fade6d",
			  "width": 640
			},
			{
			  "height": 300,
			  "url": "https://i.scdn.co/image/ab67616d00001e02683bc85e4435f02fb7fade6d",
			  "width": 300
			},
			{
			  "height": 64,
			  "url": "https://i.scdn.co/image/ab67616d00004851683bc85e4435f02fb7fade6d",
			  "width": 64
			}
		  ],
		  "name": "Titans of Creation",
		  "release_date": "2020-04-03",
		  "release_date_precision": "day",
		  "total_tracks": 12,
		  "type": "album",
		  "uri": "spotify:album:63dZKnLfVsHItoygbM7IJK"
		},
		"artists": [
		  {
			"external_urls": {
			  "spotify": "https://open.spotify.com/artist/28hJdGN1Awf7u3ifk2lVkg"
			},
			"href": "https://api.spotify.com/v1/artists/28hJdGN1Awf7u3ifk2lVkg",
			"id": "28hJdGN1Awf7u3ifk2lVkg",
			"name": "Testament",
			"type": "artist",
			"uri": "spotify:artist:28hJdGN1Awf7u3ifk2lVkg"
		  }
		],
		"disc_number": 1,
		"duration_ms": 298853,
		"explicit": false,
		"external_ids": {
		  "isrc": "DED831901121"
		},
		"external_urls": {
		  "spotify": "https://open.spotify.com/track/5V92ovFvXnXK9WfFxJvD3O"
		},
		"href": "https://api.spotify.com/v1/tracks/5V92ovFvXnXK9WfFxJvD3O",
		"id": "5V92ovFvXnXK9WfFxJvD3O",
		"is_local": false,
		"is_playable": true,
		"name": "Dream Deceiver",
		"popularity": 50,
		"preview_url": "https://p.scdn.co/mp3-preview/7d5f94329257934fcb3f1aed94ab450846966e9f?cid=c4e0f49f6d684f599d748b321f61ddf7",
		"track_number": 3,
		"type": "track",
		"uri": "spotify:track:5V92ovFvXnXK9WfFxJvD3O"
	  },
	  {
		"album": {
		  "album_type": "album",
		  "artists": [
			{
			  "external_urls": {
				"spotify": "https://open.spotify.com/artist/28hJdGN1Awf7u3ifk2lVkg"
			  },
			  "href": "https://api.spotify.com/v1/artists/28hJdGN1Awf7u3ifk2lVkg",
			  "id": "28hJdGN1Awf7u3ifk2lVkg",
			  "name": "Testament",
			  "type": "artist",
			  "uri": "spotify:artist:28hJdGN1Awf7u3ifk2lVkg"
			}
		  ],
		  "external_urls": {
			"spotify": "https://open.spotify.com/album/7lNeBg16EP03ifo5Wutq52"
		  },
		  "href": "https://api.spotify.com/v1/albums/7lNeBg16EP03ifo5Wutq52",
		  "id": "7lNeBg16EP03ifo5Wutq52",
		  "images": [
			{
			  "height": 640,
			  "url": "https://i.scdn.co/image/ab67616d0000b273ba318cd383b7eaf1dda1f533",
			  "width": 640
			},
			{
			  "height": 300,
			  "url": "https://i.scdn.co/image/ab67616d00001e02ba318cd383b7eaf1dda1f533",
			  "width": 300
			},
			{
			  "height": 64,
			  "url": "https://i.scdn.co/image/ab67616d00004851ba318cd383b7eaf1dda1f533",
			  "width": 64
			}
		  ],
		  "name": "Practice What You Preach",
		  "release_date": "1989-07-25",
		  "release_date_precision": "day",
		  "total_tracks": 10,
		  "type": "album",
		  "uri": "spotify:album:7lNeBg16EP03ifo5Wutq52"
		},
		"artists": [
		  {
			"external_urls": {
			  "spotify": "https://open.spotify.com/artist/28hJdGN1Awf7u3ifk2lVkg"
			},
			"href": "https://api.spotify.com/v1/artists/28hJdGN1Awf7u3ifk2lVkg",
			"id": "28hJdGN1Awf7u3ifk2lVkg",
			"name": "Testament",
			"type": "artist",
			"uri": "spotify:artist:28hJdGN1Awf7u3ifk2lVkg"
		  }
		],
		"disc_number": 1,
		"duration_ms": 297293,
		"explicit": false,
		"external_ids": {
		  "isrc": "USAT20102967"
		},
		"external_urls": {
		  "spotify": "https://open.spotify.com/track/1KmX2Q8IwwLY2AMIMOmYlw"
		},
		"href": "https://api.spotify.com/v1/tracks/1KmX2Q8IwwLY2AMIMOmYlw",
		"id": "1KmX2Q8IwwLY2AMIMOmYlw",
		"is_local": false,
		"is_playable": true,
		"name": "Practice What You Preach",
		"popularity": 49,
		"preview_url": "https://p.scdn.co/mp3-preview/22b838b41f20fcf3ed16038e8eeef238a7e5ff20?cid=c4e0f49f6d684f599d748b321f61ddf7",
		"track_number": 1,
		"type": "track",
		"uri": "spotify:track:1KmX2Q8IwwLY2AMIMOmYlw"
	  }
	]
  }